<?xml version="1.0" encoding="UTF-8" standalone="no"?>
<svg width="20px" height="11px" viewBox="0 0 20 11" version="1.1" xmlns="http://www.w3.org/2000/svg" xmlns:xlink="http://www.w3.org/1999/xlink">
    <!-- Generator: Sketch 3.6.1 (26313) - http://www.bohemiancoding.com/sketch -->
    <title>icn_category_auto-moto_default</title>
    <desc>Created with Sketch.</desc>
    <defs></defs>
    <g id="Styleguide" stroke="none" stroke-width="1" fill="none" fill-rule="evenodd">
        <g id="04.02.---UI-elements" transform="translate(-330.000000, -692.000000)" fill="#313943">
            <g id="icn_category_auto-moto_default" transform="translate(330.000000, 692.000000)">
                <path d="M18.8,8.11742424 L18.4,8.11742424 L18.4,5.61742424 C18.4,4.69909091 17.6824,3.95075758 16.8,3.95075758 L15.8472,3.95075758 L14.3576,0.848257576 C14.2896,0.706590909 14.152,0.617424242 14,0.617424242 L6.4,0.617424242 C6.2488,0.617424242 6.1104,0.706590909 6.0424,0.848257576 L4.5528,3.95075758 L1.6,3.95075758 C0.7176,3.95075758 0,4.69909091 0,5.61742424 L0,8.53409091 C0,8.76492424 0.1792,8.95075758 0.4,8.95075758 L1.4384,8.95075758 C1.4144,8.81575758 1.4,8.67659091 1.4,8.53409091 C1.4,7.27075758 2.3872,6.24242424 3.6,6.24242424 C4.8128,6.24242424 5.8,7.27075758 5.8,8.53409091 C5.8,8.67659091 5.7856,8.81575758 5.7616,8.95075758 L12.6384,8.95075758 C12.6144,8.81575758 12.6,8.67659091 12.6,8.53409091 C12.6,7.27075758 13.5872,6.24242424 14.8,6.24242424 C16.0128,6.24242424 17,7.27075758 17,8.53409091 C17,8.67659091 16.9856,8.81575758 16.9616,8.95075758 L18.8,8.95075758 C19.0208,8.95075758 19.2,8.76492424 19.2,8.53409091 C19.2,8.30409091 19.0208,8.11742424 18.8,8.11742424 L18.8,8.11742424 Z M8.4,3.11742424 L7.8472,3.11742424 L7.1576,4.55409091 C7.0872,4.69992424 6.9464,4.78409091 6.8,4.78409091 C6.7392,4.78409091 6.6784,4.76992424 6.6208,4.74075758 C6.4232,4.63742424 6.3432,4.38742424 6.4424,4.18159091 L7.2424,2.51492424 C7.3104,2.37325758 7.4488,2.28409091 7.6,2.28409091 L8.4,2.28409091 C8.6208,2.28409091 8.8,2.47075758 8.8,2.70075758 C8.8,2.93159091 8.6208,3.11742424 8.4,3.11742424 Z M3.6,6.65909091 C2.6072,6.65909091 1.8,7.50075758 1.8,8.53409091 C1.8,9.56825758 2.6072,10.4090909 3.6,10.4090909 C4.5928,10.4090909 5.4,9.56825758 5.4,8.53409091 C5.4,7.50075758 4.5928,6.65909091 3.6,6.65909091 Z M14.8,6.65909091 C13.8072,6.65909091 13,7.50075758 13,8.53409091 C13,9.56825758 13.8072,10.4090909 14.8,10.4090909 C15.7928,10.4090909 16.6,9.56825758 16.6,8.53409091 C16.6,7.50075758 15.7928,6.65909091 14.8,6.65909091 Z" id="Fill-1-Copy"></path>
            </g>
        </g>
    </g>
</svg>