<?xml version="1.0" encoding="utf-8"?>
<!-- Generator: Adobe Illustrator 21.0.2, SVG Export Plug-In . SVG Version: 6.00 Build 0)  -->
<svg version="1.1" id="Layer_1" xmlns="http://www.w3.org/2000/svg" xmlns:xlink="http://www.w3.org/1999/xlink" x="0px" y="0px"
	 viewBox="0 0 180 180" style="enable-background:new 0 0 180 180;" xml:space="preserve">
<style type="text/css">
	.st0{fill:#FFFFFF;}
</style>
<g id="_x30_2b--Oglasnik_x5F_homepage---Changes_1_">
	<g id="icn_brakiveze">
		<g id="Group-31" transform="translate(3.352941, 2.352941)">
			<g id="Group-19" transform="translate(-0.000000, 0.000000)">
				<g id="Group-12" transform="translate(0.000000, 0.000000)">
					<path id="Fill-1_1_" class="st0" d="M112.4,33.1c-9.8,0-20.7,6-25.8,19.2c-5-12.9-15.6-18.8-25.1-18.8
						c-17.9,0-27.2,17-27.2,33.8c0,16.8,8.9,35,25.7,52.7c12.5,13.2,24.9,21.5,25.4,21.8c0.4,0.3,0.9,0.4,1.3,0.4
						c0.5,0,1-0.2,1.5-0.5c2.1-1.6,50.9-39.9,50.9-77.2C139,43.9,125.6,33.1,112.4,33.1"/>
				</g>
			</g>
		</g>
	</g>
</g>
</svg>
