<?xml version="1.0" encoding="utf-8"?>
<!-- Generator: Adobe Illustrator 21.0.2, SVG Export Plug-In . SVG Version: 6.00 Build 0)  -->
<svg version="1.1" id="Layer_1" xmlns="http://www.w3.org/2000/svg" xmlns:xlink="http://www.w3.org/1999/xlink" x="0px" y="0px"
	 viewBox="0 0 180 180" style="enable-background:new 0 0 180 180;" xml:space="preserve">
<style type="text/css">
	.st0{fill:#FFFFFF;}
</style>
<path class="st0" d="M109,25.4H71c-13.2,0-23.8,10.7-23.8,23.8v81.5c0,13.2,10.7,23.8,23.8,23.8h38c13.2,0,23.8-10.7,23.8-23.8V49.2
	C132.8,36.1,122.1,25.4,109,25.4z M73.7,34.4h32.6v6.5H73.7V34.4z M76.7,137.3h-7.2v-7.2h7.2V137.3z M76.7,125.8h-7.2v-7.2h7.2
	V125.8z M76.7,113.5h-7.2v-7.2h7.2V113.5z M94,137.3h-7.2v-7.2H94V137.3z M94,125.8h-7.2v-7.2H94V125.8z M94,113.5h-7.2v-7.2H94
	V113.5z M110.5,137.3h-7.2v-7.2h7.2V137.3z M110.5,125.8h-7.2v-7.2h7.2V125.8z M110.5,113.5h-7.2v-7.2h7.2V113.5z M122.2,98.1H57.8
	V45h64.4V98.1z"/>
</svg>
