<?xml version="1.0" encoding="UTF-8" standalone="no"?>
<svg width="20px" height="18px" viewBox="0 0 20 18" version="1.1" xmlns="http://www.w3.org/2000/svg" xmlns:xlink="http://www.w3.org/1999/xlink">
    <!-- Generator: Sketch 3.6.1 (26313) - http://www.bohemiancoding.com/sketch -->
    <title>icn_category_posao_default</title>
    <desc>Created with Sketch.</desc>
    <defs></defs>
    <g id="Styleguide" stroke="none" stroke-width="1" fill="none" fill-rule="evenodd">
        <g id="04.02.---UI-elements" transform="translate(-438.000000, -522.000000)" fill="#313943">
            <g id="icn_category_posao_default" transform="translate(438.000000, 522.000000)">
                <path d="M18.8,3.68181818 L13.6,3.68181818 L13.6,1.22727273 C13.6,0.775636364 13.2408,0.409090909 12.8,0.409090909 L8,0.409090909 C7.5592,0.409090909 7.2,0.775636364 7.2,1.22727273 L7.2,3.68181818 L2,3.68181818 C1.3384,3.68181818 0.8,4.23245455 0.8,4.90909091 L0.8,16.3636364 C0.8,17.0402727 1.3384,17.5909091 2,17.5909091 L18.8,17.5909091 C19.4616,17.5909091 20,17.0402727 20,16.3636364 L20,4.90909091 C20,4.23245455 19.4616,3.68181818 18.8,3.68181818 L18.8,3.68181818 Z M8,2.86363636 L12.8,2.86363636 L12.8,3.68181818 L8,3.68181818 L8,2.86363636 Z M3.2,13.5 L17.6,13.5 L17.6,14.3181818 L3.2,14.3181818 L3.2,13.5 Z M3.2,10.2272727 L17.6,10.2272727 L17.6,11.0454545 L3.2,11.0454545 L3.2,10.2272727 Z M3.2,6.95454545 L17.6,6.95454545 L17.6,7.77272727 L3.2,7.77272727 L3.2,6.95454545 Z" id="Imported-Layers-7"></path>
            </g>
        </g>
    </g>
</svg>