<?xml version="1.0" encoding="utf-8"?>
<!-- Generator: Adobe Illustrator 20.0.0, SVG Export Plug-In . SVG Version: 6.00 Build 0)  -->
<svg version="1.1" id="Layer_1" xmlns="http://www.w3.org/2000/svg" xmlns:xlink="http://www.w3.org/1999/xlink" x="0px" y="0px"
	 viewBox="0 0 22 40" style="enable-background:new 0 0 22 40;" xml:space="preserve">
<style type="text/css">
	.st0{fill:#313A44;}
</style>
<path class="st0" d="M9.2,16.3C8.8,16.2,9,16,9.1,15.8c0.2-0.3,0.4-0.7,0.6-1.1c-1.1-0.2-1.9-0.9-2.6-1.6c-0.8-0.9-0.7-1.2-0.2-2.1
	C7.4,10.2,8,9.4,8.4,8.5c0.5-0.9,1.3-1.8,1.9-2.6c0.2-0.2,0.3-0.4,0.4-0.7c-0.1,0-0.1,0-0.2,0c-0.1-0.1-0.1-0.2-0.2-0.3
	c-0.1-0.3-0.1-0.6-0.2-0.8C9.3,3.3,9.5,2.3,10,1.3C10.1,1,10.1,1,9.9,0.9C10,0.8,10,0.7,10.1,0.6c0,0,0,0.1,0.1,0.2
	c0.6-0.8,1.4-0.7,2.3-0.5C13,0.4,13.5,0.5,14,0.1C14.1,0,14.2,0,14.3,0c0,0.2,0,0.4,0,0.6c0,0,0.1,0,0.2-0.1
	c-0.2,0.2-0.3,0.4-0.4,0.6c0.1,0.3,0.3,0.6,0.4,0.9c0.1,0.2,0.1,0.4,0.1,0.7c0,0.2,0.1,0.5,0.2,0.6c0.2,0.3,0.2,0.6-0.1,0.8
	c-0.1,0.1-0.1,0.3-0.1,0.4c0,0.1,0,0.1,0,0.2c0.1,0.9,0,1-0.9,1c-0.1,0-0.1,0-0.2,0c-0.1,0.3,0,0.3,0.3,0.4c0.4,0.2,0.8,0.4,1.2,0.7
	c0.2,0.1,0.3,0.5,0.3,0.7c-0.1,0.7,0.3,1.3,0.4,2c0.6-0.3,0.7-0.6,0.6-1.3c-0.2-0.8,0.2-1.5,0.8-1.9c0.4-0.2,0.5-0.2,0.7,0.2
	C18,6.9,18.2,7,18.3,7.2c0.6,0.6,0.6,0.7,0.2,1.5c-0.2,0.4-0.6,0.7-0.8,1.1c-0.3,0.5-0.6,1-0.8,1.5c-0.4,0.7-0.7,1.5-1.2,2.1
	c-0.4,0.5-0.3,0.9-0.3,1.4c0.1,0.5,0.1,1,0.1,1.5c0,0.2-0.2,0.3-0.3,0.4c0.1,0.6,0.1,1.2,0.2,1.8c0,0.1,0.2,0.3,0.3,0.3
	c0.7,0.3,1.4,0.6,2.1,0.9c0.1,0.1,0.2,0.3,0.3,0.5c0.9,0.3,1.6,1,2.4,1.6c0.2,0.2,0.4,0.4,0.6,0.6c0.8,0.5,0.8,1.3,0.7,2.2
	c0,0.2-0.2,0.6-0.5,0.7c-1.6,0.9-3.1,1.8-4.8,2.3c-0.9,0.3-1.7,0.8-2.3,1.5c-0.1,0.1-0.1,0.3-0.1,0.4c-0.1,0.2-0.1,0.4-0.2,0.5
	c-0.5,0.5-0.8,1.1-0.6,1.8c0.1,0.4,0.2,0.8,0.3,1.2c0.1,0.3,0.2,0.6-0.2,0.8c-0.3,0.2-1,0-1.2-0.3c-0.2-0.6-0.4-1.2-0.6-1.7
	c0-0.2,0-0.3,0-0.5c0-0.5-0.1-1-0.4-1.5c-0.3-0.4-0.4-0.9-0.5-1.4c-0.1-0.7,0.7-1.3,1.4-1.2c0.4,0.1,0.6,0,0.9-0.2
	c0.8-0.6,1.6-1.1,2.1-2c0.2-0.3,0.5-0.5,0.7-0.6c0.2-0.1,0.4-0.2,0.6-0.3c-0.4,0-0.8-0.1-1.2-0.1c0,0-0.1,0-0.1,0
	c-0.5,0.5-0.9,0-1.3-0.2c-0.4-0.2-0.8-0.5-1.1-0.8c-0.8,0.5-1.4,1.2-1.7,2.1c-0.1,0.2-0.1,0.5-0.4,0.4c-0.1,0-0.1,0.2-0.2,0.3
	c-0.4,0.9-0.8,1.8-1.2,2.6c-0.6,1.2-1.6,2-2.6,2.7c-1.6,1.1-2.8,2.4-3.6,4.1c-0.1,0.2-0.2,0.4,0,0.7c0.1,0.1,0,0.4-0.1,0.6
	c0,0.3-0.1,0.6-0.1,0.9c0,0.1,0.1,0.2,0.1,0.4c0,0.6,0.2,1.1,0.6,1.5C4.1,39.5,4,39.9,3.5,40c-0.5,0.1-1.1,0.1-1.6,0.1
	c-0.7-0.1-1.1-0.6-1.2-1.4c0-0.8-0.3-1.5-0.7-2.3C-0.1,36,0,35.7,0.2,35.3c0.3-0.4,0.6-0.8,1.2-0.8c0.1,0,0.2-0.2,0.3-0.3
	c0.4-1,0.8-2,1.2-3c0.3-0.7,0.7-1.3,1.3-1.8c0.5-0.4,1-0.8,1.5-1.2c0.5-0.4,0.7-1,0.8-1.6c0.1-0.8,0.3-1.5,0.5-2.3
	c0,0,0.1-0.1,0-0.1c-0.3-0.5,0.2-0.8,0.3-1.1c0.1-0.4,0.2-0.8,0.2-1.2c0-0.8-0.1-1.6,0.3-2.4C8,19.4,8,19.3,8,19.2
	c0-0.8,0.3-1.4,0.7-2.1C8.8,16.9,9,16.6,9.2,16.3z"/>
</svg>
