<?xml version="1.0" encoding="utf-8"?>
<!-- Generator: Adobe Illustrator 20.0.0, SVG Export Plug-In . SVG Version: 6.00 Build 0)  -->
<svg version="1.1" id="Layer_1" xmlns="http://www.w3.org/2000/svg" xmlns:xlink="http://www.w3.org/1999/xlink" x="0px" y="0px"
	 viewBox="0 0 42 42" style="enable-background:new 0 0 42 42;" xml:space="preserve">
<style type="text/css">
	.st0{fill:#313944;}
</style>
<path class="st0" d="M27.9,0.2C28,3.8,27.5,3.9,29,3.9c0-1.2,0-2.5,0-3.7c0.4,0,0.8,0,1.5,0c0,0.4,0.1,3.7,0.1,3.7s1.1,0,1.3,0
	c0-1.2-0.1-2.5-0.1-3.7c0.6,0,1.6,0,1.6,0c0,0.7,0.1,3.1,0.1,3.7l1.2,0c0-1-0.1-2.5-0.1-3.7c1.7,0,3.3-0.2,4.9,0.1
	C41,0.6,42,1.7,42,3.3c0,7.2,0.1,14.4,0,21.6c0,1.8-1.4,3.1-3.3,3.2c-1.7,0.1-3.5,0.1-5.2,0c-1.6-0.1-2.7-1-3.2-2.5
	c-0.1-0.3,0.2-0.9,0.4-1.3c0.2-0.6,0.8-1.1,0.7-1.6c-0.4-3.5-0.9-6.9-1.3-10.6c-4.4-0.7-8.7-1.4-13.1-2.1c0-3.3,0-6.5,0-9.8
	C20.4,0.2,24.3,0.2,27.9,0.2z"/>
<path class="st0" d="M3.2,15.8c0.6,0.7,1.2,1.4,1.9,2.2c1.2,1.4,2.5,1.7,3.7,0.7c1.1-1,1.1-2.3,0-3.7c-0.6-0.7-1.1-1.4-1.6-2.1
	c0,0,0-0.2,0-0.5c1.6,0.5,3.2,0.8,4.4,1.9c0.3,0.3,0.5,0.7,0.9,1c1.1,1,1.4,2.2,0.9,3.6c-0.4,1.2-0.1,2.1,0.7,3.2
	c4.4,5.2,8.6,10.4,12.9,15.7c0.1,0.1,0.2,0.3,0.3,0.4c1.1,1.3,1.2,2.5,0.3,3.3c-1,0.8-2.1,0.6-3.3-0.9c-3-3.6-5.9-7.2-8.9-10.8
	c-1.4-1.7-2.8-3.3-4.1-5c-0.9-1.3-2-1.8-3.5-1.7c-0.7,0.1-1.6,0.1-2-0.3c-1-0.9-1.9-2-2.4-3.2C3,18.6,3,17.2,2.8,16
	C3,15.9,3.1,15.8,3.2,15.8z"/>
<path class="st0" d="M7.1,7.7C7,7,6.9,6.5,6.8,5.8c-2.2,0-4.5,0-6.8,0c0-0.6,0-1.1,0-1.8c2.3,0,4.5,0,6.7,0C6.9,3.5,7,3,7.2,2.4
	c1.5,0,3.1,0,4.7,0c0.2-0.7,0.3-1.2,0.4-1.8c1,0,2.1,0,3.2,0c0,3,0,6,0,9.1c-1.1,0-2.1,0-3.3,0c-0.1-0.6-0.1-1.1-0.2-1.9
	C10.3,7.7,8.7,7.7,7.1,7.7z"/>
<path class="st0" d="M29.8,18.7c-1.2,0-2.1,0-2.8,0c0-2,0-4,0-6.1c0.4,0.1,1.1,0.2,2,0.3C29.2,14.7,29.5,16.6,29.8,18.7z"/>
</svg>
