<?xml version="1.0" encoding="utf-8"?>
<!-- Generator: Adobe Illustrator 21.0.2, SVG Export Plug-In . SVG Version: 6.00 Build 0)  -->
<svg version="1.1" id="Layer_1" xmlns="http://www.w3.org/2000/svg" xmlns:xlink="http://www.w3.org/1999/xlink" x="0px" y="0px"
	 viewBox="0 0 180 180" style="enable-background:new 0 0 180 180;" xml:space="preserve">
<style type="text/css">
	.st0{fill:#FFFFFF;}
</style>
<g id="_x30_2b--Oglasnik_x5F_homepage---Changes">
	<g id="icn_turizam">
		<g id="Group-23" transform="translate(2.352941, 2.352941)">
			<g id="Group-6">
				<g id="Imported-Layers-3">
					<path id="Fill-1" class="st0" d="M49.3,89.5c0.3,0.7,0.8,1.2,1.4,1.5c0.3,0.2,0.7,0.2,1.1,0.2c0.3,0,0.7-0.1,1-0.2l12.5-5.2
						c0.7-0.3,1.2-0.8,1.5-1.5l2-4.7l4.5,2c0.7,0.3,1.4,0.3,2.1,0l22.6-9.3l15.5,40.7c-11.9,0.8-22.8,4.9-30.2,11.8
						c-1.1,1-1.2,2.8-0.2,4c0.5,0.6,1.3,0.9,2,0.9c0.6,0,1.3-0.2,1.8-0.7c7.1-6.6,18.5-10.5,30.5-10.5h32.4c1.5,0,2.7-1.3,2.7-2.8
						c0-1.5-1.2-2.8-2.7-2.8h-30.5l-16.2-42.6l22.6-9.3c0.7-0.3,1.2-0.8,1.5-1.5l2-4.7l4.5,2c0.7,0.3,1.4,0.3,2.1,0l12.5-5.2
						c1.4-0.6,2.1-2.2,1.5-3.6l-2-5.2C142.7,30.1,131,23,114.6,23c-8.5,0-17.9,1.9-27.5,5.6L86,26c-0.5-1.4-2.1-2.1-3.5-1.6
						c-1.4,0.6-2.1,2.2-1.5,3.6l1,2.7C53.8,43.3,39.8,64.5,47.3,84.3L49.3,89.5"/>
					<path id="Fill-2" class="st0" d="M149.6,146.7c-3.7,0-8.1-3.7-8.1-8.4c0-1.5-1.2-2.8-2.7-2.8c-1.5,0-2.7,1.3-2.7,2.8
						c0,4.7-4.3,8.4-8.1,8.4c-3.7,0-8.1-3.7-8.1-8.4c0-1.5-1.2-2.8-2.7-2.8s-2.7,1.3-2.7,2.8c0,4.7-4.3,8.4-8.1,8.4
						c-3.7,0-8.1-3.7-8.1-8.4c0-1.5-1.2-2.8-2.7-2.8c-1.5,0-2.7,1.3-2.7,2.8c0,4.7-4.3,8.4-8.1,8.4c-3.7,0-8.1-3.7-8.1-8.4
						c0-1.5-1.2-2.8-2.7-2.8s-2.7,1.3-2.7,2.8c0,4.7-4.3,8.4-8.1,8.4s-8.1-3.7-8.1-8.4c0-1.5-1.2-2.8-2.7-2.8
						c-1.5,0-2.7,1.3-2.7,2.8c0,4.7-4.3,8.4-8.1,8.4s-8.1-3.7-8.1-8.4c0-1.5-1.2-2.8-2.7-2.8c-1.5,0-2.7,1.3-2.7,2.8
						c0,3-2.2,5.6-4.2,7c-1.2,0.9-1.6,2.6-0.7,3.9c0.8,1.3,2.5,1.6,3.7,0.8c1.5-1,2.8-2.3,3.8-3.6c2.5,3.6,6.5,6,10.9,6
						c4.3,0,8.3-2.3,10.8-5.8c2.5,3.5,6.5,5.8,10.8,5.8s8.3-2.3,10.8-5.8c2.5,3.5,6.5,5.8,10.8,5.8c4.3,0,8.3-2.3,10.8-5.8
						c2.5,3.5,6.5,5.8,10.8,5.8s8.3-2.3,10.8-5.8c2.5,3.5,6.5,5.8,10.8,5.8c4.3,0,8.3-2.3,10.8-5.8c2.5,3.5,6.5,5.8,10.8,5.8
						c1.5,0,2.7-1.3,2.7-2.8C152.3,147.9,151.1,146.7,149.6,146.7"/>
				</g>
			</g>
		</g>
	</g>
</g>
</svg>
