<?xml version="1.0" encoding="utf-8"?>
<!-- Generator: Adobe Illustrator 21.0.2, SVG Export Plug-In . SVG Version: 6.00 Build 0)  -->
<svg version="1.1" id="Layer_1" xmlns="http://www.w3.org/2000/svg" xmlns:xlink="http://www.w3.org/1999/xlink" x="0px" y="0px"
	 viewBox="0 0 180 180" style="enable-background:new 0 0 180 180;" xml:space="preserve">
<style type="text/css">
	.st0{fill:#FFFFFF;}
</style>
<g>
	<path class="st0" d="M108.3,50.9c0.1,1.9-1.3,3.3-2.3,4.4c-12.1,13.5-24.3,27-36.4,40.5c-4.5,5-9,10-13.5,15.1
		c-4.1,4.7-6.9,5-11.6,0.8c-5.4-4.8-10.9-9.7-16.3-14.5c-3.6-3.3-3.8-6.6-0.6-10.2c16.9-18.7,33.7-37.4,50.6-56.1
		c2.9-3.2,6.3-3.4,9.5-0.6c5.9,5.2,11.8,10.4,17.5,15.8C106.6,47.3,108.2,48.9,108.3,50.9z"/>
	<path class="st0" d="M117,127.6c3.7-4.1,7.1-7.8,10.6-11.7c7,6.3,13.8,12.4,20.6,18.6c1.6,1.4,3.2,2.7,4.6,4.2
		c2.4,2.4,2.4,5.3,0.2,7.8c-0.5,0.6-1.1,1.2-1.7,1.9c-3.7,4.2-6.2,4.3-10.3,0.6c-7.5-6.7-14.9-13.4-22.3-20.2
		C118.2,128.4,117.7,128.1,117,127.6z"/>
	<path class="st0" d="M33.7,104c1.4,1.3,2.6,2.3,3.9,3.5c-0.6,0.8-1.1,1.5-1.8,2.5c4.6,4.1,9.1,8.3,13.9,12.2
		c2.8,2.3,6.1,1.6,9.1,0.2c6.8-3,13.5-6.1,20.3-9.2c5.8-2.6,11.5-5.5,17.4-7.5c4.6-1.6,9.5-1.8,13.7,1.8c4.3,3.7,8.6,7.3,13.1,11.1
		c-1.4,1.5-2.5,2.7-3.7,4.2c-3.3-3-6.8-5.8-9.9-8.9c-4.1-4.2-8.6-4.7-13.7-2.3c-10.9,5-21.9,10-32.9,14.9c-1.8,0.8-3.7,1.5-5.7,2
		c-4.7,1.1-8.9,0.2-12.6-3.1c-4.7-4.3-9.5-8.5-14.2-12.8c-1.9-1.7-2-3-0.3-4.9C31.4,106.4,32.5,105.3,33.7,104z"/>
	<path class="st0" d="M95.7,36.8c2.9-1.1,4.1-0.1,3.8,3.3C98.2,38.9,97,37.9,95.7,36.8z"/>
</g>
</svg>
