<?xml version="1.0" encoding="UTF-8" standalone="no"?>
<svg width="13px" height="15px" viewBox="0 0 13 15" version="1.1" xmlns="http://www.w3.org/2000/svg" xmlns:xlink="http://www.w3.org/1999/xlink">
    <!-- Generator: Sketch 3.6.1 (26313) - http://www.bohemiancoding.com/sketch -->
    <title>icon_location-gray-profile</title>
    <desc>Created with Sketch.</desc>
    <defs></defs>
    <g id="Styleguide" stroke="none" stroke-width="1" fill="none" fill-rule="evenodd" stroke-linecap="round" stroke-linejoin="round">
        <g id="04.02.---UI-elements" transform="translate(-388.000000, -212.000000)" stroke="#B8BCC2">
            <g id="icon_location-gray-profile" transform="translate(389.000000, 213.000000)">
                <path d="M11.3684211,5.54166667 C11.3684211,9.625 5.68421053,13.4166667 5.68421053,13.4166667 C5.68421053,13.4166667 0,9.625 0,5.54166667 C0,2.48179167 2.37,0 5.68421053,0 C8.99747368,0 11.3684211,2.48179167 11.3684211,5.54166667 L11.3684211,5.54166667 Z M8.84210526,5.25 C8.84210526,6.86116667 7.42768421,8.16666667 5.68421053,8.16666667 C3.93978947,8.16666667 2.52631579,6.86116667 2.52631579,5.25 C2.52631579,3.63941667 3.93978947,2.33333333 5.68421053,2.33333333 C7.42768421,2.33333333 8.84210526,3.63941667 8.84210526,5.25 L8.84210526,5.25 Z"></path>
            </g>
        </g>
    </g>
</svg>