<?xml version="1.0" encoding="utf-8"?>
<!-- Generator: Adobe Illustrator 21.0.2, SVG Export Plug-In . SVG Version: 6.00 Build 0)  -->
<svg version="1.1" id="Layer_1" xmlns="http://www.w3.org/2000/svg" xmlns:xlink="http://www.w3.org/1999/xlink" x="0px" y="0px"
	 viewBox="0 0 180 180" style="enable-background:new 0 0 180 180;" xml:space="preserve">
<style type="text/css">
	.st0{fill:#FFFFFF;}
</style>
<g id="_x30_2b--Oglasnik_x5F_homepage---Changes">
	<g id="icn_informatika">
		<g id="Group-24" transform="translate(3.529412, 4.705882)">
			<g id="Group-7">
				<g id="Fill-8-_x2B_-Fill-9">
					<path id="Fill-8" class="st0" d="M29.9,114.5H143c1.5,0,2.7-1.2,2.7-2.8V42.2c0-6.1-4.8-11.1-10.8-11.1H38
						c-5.9,0-10.8,5-10.8,11.1v69.4C27.3,113.2,28.5,114.5,29.9,114.5L29.9,114.5z M38,42.2h96.9v61.1H38V42.2z"/>
					<path id="Fill-9" class="st0" d="M148.4,117.2H99.9c-1.5,0-2.7,1.2-2.7,2.8v2.8H75.7V120c0-1.5-1.2-2.8-2.7-2.8H24.6
						c-1.5,0-2.7,1.2-2.7,2.8v11.1c0,4.6,3.6,8.3,8.1,8.3H143c4.5,0,8.1-3.7,8.1-8.3V120C151.1,118.5,149.9,117.2,148.4,117.2"/>
				</g>
			</g>
		</g>
	</g>
</g>
</svg>
