<?xml version="1.0" encoding="utf-8"?>
<!-- Generator: Adobe Illustrator 21.0.2, SVG Export Plug-In . SVG Version: 6.00 Build 0)  -->
<svg version="1.1" id="Layer_1" xmlns="http://www.w3.org/2000/svg" xmlns:xlink="http://www.w3.org/1999/xlink" x="0px" y="0px"
	 viewBox="0 0 180 180" style="enable-background:new 0 0 180 180;" xml:space="preserve">
<style type="text/css">
	.st0{fill:#FFFFFF;}
</style>
<g>
	<path class="st0" d="M122.3,71.8C120.1,67.4,111.2,53,90,53S59.9,67.4,57.7,71.8C36.4,72.2,33.8,83.1,33.5,86h-2.4v68.6h117.8V86
		h-2.4C146.2,83.1,143.6,72.2,122.3,71.8z M58.9,75.7h1.4l0.5-1.3C60.9,74.3,67.7,57,90,57c22.2,0,28.9,16.8,29.2,17.5l0.5,1.3h1.4
		c18.2,0,21,7.8,21.4,10.3h-105C37.9,83.6,40.7,75.7,58.9,75.7z M93.4,96.8v12.5h-6.8V96.8H93.4z M136.3,143.8H43.7v-47h35.9v17.9
		h23.1V96.8h33.5V143.8z"/>
	<rect x="147.2" y="76.1" class="st0" width="9.8" height="3.4"/>
	<rect x="89.5" y="25.4" class="st0" width="3.4" height="9.8"/>
	<rect x="123.9" y="37.2" transform="matrix(0.7664 -0.6424 0.6424 0.7664 5.1172 91.8485)" class="st0" width="9.8" height="3.4"/>
	<rect x="23" y="76.1" class="st0" width="9.8" height="3.4"/>
	<rect x="49.5" y="34" transform="matrix(0.6429 -0.766 0.766 0.6429 -11.5161 53.0789)" class="st0" width="3.4" height="9.8"/>
</g>
</svg>
